<?xml version="1.0" encoding="UTF-8" standalone="no"?>
<!-- Created with Inkscape (http://www.inkscape.org/) -->
<svg
   xmlns:dc="http://purl.org/dc/elements/1.1/"
   xmlns:cc="http://web.resource.org/cc/"
   xmlns:rdf="http://www.w3.org/1999/02/22-rdf-syntax-ns#"
   xmlns:svg="http://www.w3.org/2000/svg"
   xmlns="http://www.w3.org/2000/svg"
   xmlns:sodipodi="http://sodipodi.sourceforge.net/DTD/sodipodi-0.dtd"
   xmlns:inkscape="http://www.inkscape.org/namespaces/inkscape"
   width="659.57666"
   height="555.6438"
   id="svg11960"
   sodipodi:version="0.32"
   inkscape:version="0.45.1"
   sodipodi:docbase="/home/kovaska/biomed/svnlocal/pipeline/trunk/doc/diagrams"
   sodipodi:docname="venn-ui.svg"
   inkscape:output_extension="org.inkscape.output.svg.inkscape"
   version="1.0">
  <defs
     id="defs11962" />
  <sodipodi:namedview
     id="base"
     pagecolor="#ffffff"
     bordercolor="#666666"
     borderopacity="1.0"
     gridtolerance="10000"
     guidetolerance="10"
     objecttolerance="10"
     inkscape:pageopacity="0.0"
     inkscape:pageshadow="2"
     inkscape:zoom="0.7"
     inkscape:cx="315.88322"
     inkscape:cy="276.25998"
     inkscape:document-units="px"
     inkscape:current-layer="layer5"
     inkscape:window-width="1280"
     inkscape:window-height="973"
     inkscape:window-x="0"
     inkscape:window-y="1" />
  <metadata
     id="metadata11965">
    <rdf:RDF>
      <cc:Work
         rdf:about="">
        <dc:format>image/svg+xml</dc:format>
        <dc:type
           rdf:resource="http://purl.org/dc/dcmitype/StillImage" />
      </cc:Work>
    </rdf:RDF>
  </metadata>
  <g
     inkscape:groupmode="layer"
     id="layer5"
     inkscape:label="Layer 2"
     style="display:inline"
     transform="translate(-38.067355,-231.39353)">
    <path
       style="opacity:1;color:#000000;fill:#cecece;fill-opacity:1;fill-rule:nonzero;stroke:#000000;stroke-width:0.69802529;stroke-linecap:butt;stroke-linejoin:miter;marker:none;marker-start:none;marker-mid:none;marker-end:none;stroke-miterlimit:4;stroke-dasharray:none;stroke-dashoffset:0;stroke-opacity:1;visibility:visible;display:inline;overflow:visible;enable-background:accumulate"
       d="M 95.0625,248.3125 C 72.092324,248.21483 53.034639,255.39475 43.90625,269.625 C 26.7234,296.41134 51.223246,338.13473 98.59375,362.75 C 109.13103,368.22552 119.90866,372.36995 130.5,375.25 C 128.64478,383.69974 127.65625,392.67653 127.65625,402 C 127.65625,451.23057 155.54054,491.18749 189.90625,491.1875 C 224.27196,491.1875 252.15624,451.23056 252.15625,402 C 252.15625,393.71516 251.3527,385.70701 249.875,378.09375 C 262.90649,375.29382 276.41566,370.50279 289.53125,363.6875 C 336.90175,339.07222 361.4016,297.34884 344.21875,270.5625 C 327.0359,243.77616 274.6205,242.00972 227.25,266.625 C 214.58854,273.20431 203.59693,281.02628 194.5625,289.4375 C 185.34606,280.66666 173.97689,272.51191 160.84375,265.6875 C 138.63883,254.14909 115.3303,248.39868 95.0625,248.3125 z "
       id="path12051" />
    <path
       style="opacity:1;color:#000000;fill:#cecece;fill-opacity:1;fill-rule:nonzero;stroke:#000000;stroke-width:0.69802523;stroke-linecap:butt;stroke-linejoin:miter;marker:none;marker-start:none;marker-mid:none;marker-end:none;stroke-miterlimit:4;stroke-dasharray:none;stroke-dashoffset:0;stroke-opacity:1;visibility:visible;display:inline;overflow:visible;enable-background:accumulate"
       d="M 542.15625,296.34375 C 517.39173,319.40113 507.59777,347.06138 520.1875,366.6875 C 524.72694,373.76404 531.72519,379.06648 540.4375,382.625 C 550.28751,379.09518 558.19978,373.47664 563.15625,365.75 C 575.57759,346.38638 566.19293,319.21149 542.15625,296.34375 z "
       id="path13032" />
    <path
       style="opacity:1;color:#000000;fill:#cecece;fill-opacity:1;fill-rule:nonzero;stroke:#000000;stroke-width:0.69802529;stroke-linecap:butt;stroke-linejoin:miter;marker:none;marker-start:none;marker-mid:none;marker-end:none;stroke-miterlimit:4;stroke-dasharray:none;stroke-dashoffset:0;stroke-opacity:1;visibility:visible;display:inline;overflow:visible;enable-background:accumulate"
       d="M 537.5,319.75 C 531.92808,319.75 526.54648,320.81132 521.40625,322.78125 C 513.23008,338.4954 512.1861,354.21412 520.1875,366.6875 C 532.6173,386.06431 563.45038,392.32502 597.5,385 C 590.1931,347.38162 566.07836,319.74999 537.5,319.75 z "
       id="path13043" />
    <path
       style="opacity:1;color:#000000;fill:#cecece;fill-opacity:1;fill-rule:nonzero;stroke:#000000;stroke-width:0.69802529;stroke-linecap:butt;stroke-linejoin:miter;marker:none;marker-start:none;marker-mid:none;marker-end:none;stroke-miterlimit:4;stroke-dasharray:none;stroke-dashoffset:0;stroke-opacity:1;visibility:visible;display:inline;overflow:visible;enable-background:accumulate"
       d="M 537.5,319.75 C 509.63546,319.75 486.05987,346.00588 478.125,382.1875 C 515.14589,392.25345 549.79605,386.57724 563.15625,365.75 C 569.93931,355.17589 570.20711,342.25703 565.15625,329 C 556.82796,323.07513 547.42385,319.75 537.5,319.75 z "
       id="path14022" />
    <path
       style="opacity:1;color:#000000;fill:#cecece;fill-opacity:1;fill-rule:nonzero;stroke:#000000;stroke-width:0.69802529;stroke-linecap:butt;stroke-linejoin:miter;marker:none;marker-start:none;marker-mid:none;marker-end:none;stroke-miterlimit:4;stroke-dasharray:none;stroke-dashoffset:0;stroke-opacity:1;visibility:visible;display:inline;overflow:visible;enable-background:accumulate"
       d="M 360.0625,608.3125 C 354.49058,608.3125 349.10898,609.37382 343.96875,611.34375 C 335.79317,627.05748 334.7488,642.77694 342.75,655.25 C 347.28944,662.32654 354.28769,667.62898 363,671.1875 C 372.84898,667.65763 380.76265,662.03856 385.71875,654.3125 C 392.49712,643.7457 392.75875,630.84113 387.71875,617.59375 C 379.38954,611.66723 369.98781,608.31251 360.0625,608.3125 z "
       id="path14998" />
  </g>
  <g
     inkscape:label="Layer 1"
     inkscape:groupmode="layer"
     id="layer1"
     style="display:inline"
     transform="translate(-38.067355,-231.39353)">
    <path
       sodipodi:type="arc"
       style="opacity:1;color:#000000;fill:none;fill-opacity:1;fill-rule:nonzero;stroke:#000000;stroke-width:1.01300001;stroke-linecap:butt;stroke-linejoin:miter;marker:none;marker-start:none;marker-mid:none;marker-end:none;stroke-miterlimit:4;stroke-dasharray:none;stroke-dashoffset:0;stroke-opacity:1;visibility:visible;display:inline;overflow:visible;enable-background:accumulate"
       id="path11971"
       sodipodi:cx="205"
       sodipodi:cy="438.07648"
       sodipodi:rx="136.42857"
       sodipodi:ry="85.714287"
       d="M 341.42857 438.07648 A 136.42857 85.714287 0 1 1  68.571426,438.07648 A 136.42857 85.714287 0 1 1  341.42857 438.07648 z"
       transform="matrix(0,-0.653718,0.7263283,0,-128.28061,536.01731)" />
    <text
       xml:space="preserve"
       style="font-size:13.78134727px;font-style:normal;font-weight:normal;fill:#000000;fill-opacity:1;stroke:none;stroke-width:1px;stroke-linecap:butt;stroke-linejoin:miter;stroke-opacity:1;display:inline;font-family:Bitstream Vera Sans"
       x="161.54887"
       y="504.38269"
       id="text11982"
       transform="scale(1.0540744,0.9486997)"><tspan
         sodipodi:role="line"
         id="tspan11984"
         x="161.54887"
         y="504.38269">L<tspan
   style="font-size:9.64694309px"
   id="tspan11986"
   dy="1.9687639">g3,x3</tspan></tspan></text>
    <path
       sodipodi:type="arc"
       style="opacity:1;color:#000000;fill:none;fill-opacity:1;fill-rule:nonzero;stroke:#000000;stroke-width:1.01300001;stroke-linecap:butt;stroke-linejoin:miter;marker:none;marker-start:none;marker-mid:none;marker-end:none;stroke-miterlimit:4;stroke-dasharray:none;stroke-dashoffset:0;stroke-opacity:1;visibility:visible;display:inline;overflow:visible;enable-background:accumulate"
       id="path9005"
       sodipodi:cx="205"
       sodipodi:cy="438.07648"
       sodipodi:rx="136.42857"
       sodipodi:ry="85.714287"
       d="M 341.42857 438.07648 A 136.42857 85.714287 0 1 1  68.571426,438.07648 A 136.42857 85.714287 0 1 1  341.42857 438.07648 z"
       transform="matrix(0.6290187,0.326859,-0.3631641,0.5661364,159.87005,-0.7969779)" />
    <path
       sodipodi:type="arc"
       style="opacity:1;color:#000000;fill:none;fill-opacity:1;fill-rule:nonzero;stroke:#000000;stroke-width:1.01300001;stroke-linecap:butt;stroke-linejoin:miter;marker:none;marker-start:none;marker-mid:none;marker-end:none;stroke-miterlimit:4;stroke-dasharray:none;stroke-dashoffset:0;stroke-opacity:1;visibility:visible;display:inline;overflow:visible;enable-background:accumulate"
       id="path11969"
       sodipodi:cx="205"
       sodipodi:cy="438.07648"
       sodipodi:rx="136.42857"
       sodipodi:ry="85.714287"
       d="M 341.42857 438.07648 A 136.42857 85.714287 0 1 1  68.571426,438.07648 A 136.42857 85.714287 0 1 1  341.42857 438.07648 z"
       transform="matrix(0.6290187,-0.326859,0.3631641,0.5661364,-29.653409,134.14909)" />
    <text
       xml:space="preserve"
       style="font-size:13.78134727px;font-style:normal;font-weight:normal;fill:#000000;fill-opacity:1;stroke:none;stroke-width:1px;stroke-linecap:butt;stroke-linejoin:miter;stroke-opacity:1;display:inline;font-family:Bitstream Vera Sans"
       x="50.114559"
       y="289.94983"
       id="text9998"
       transform="scale(1.0540744,0.9486997)"><tspan
         sodipodi:role="line"
         id="tspan10000"
         x="50.114559"
         y="289.94983">L<tspan
   style="font-size:9.64694309px"
   id="tspan10002"
   dy="1.9687639">g1,x1</tspan></tspan></text>
    <text
       xml:space="preserve"
       style="font-size:13.78134727px;font-style:normal;font-weight:normal;fill:#000000;fill-opacity:1;stroke:none;stroke-width:1px;stroke-linecap:butt;stroke-linejoin:miter;stroke-opacity:1;display:inline;font-family:Bitstream Vera Sans"
       x="168.34062"
       y="254.37657"
       id="text11988"
       transform="scale(1.0540744,0.9486997)"><tspan
         sodipodi:role="line"
         id="tspan11990"
         x="168.34062"
         y="254.37657">k=1</tspan></text>
    <text
       xml:space="preserve"
       style="font-size:13.78134727px;font-style:normal;font-weight:normal;fill:#000000;fill-opacity:1;stroke:none;stroke-width:1px;stroke-linecap:butt;stroke-linejoin:miter;stroke-opacity:1;display:inline;font-family:Bitstream Vera Sans"
       x="286.1442"
       y="292.37167"
       id="text11976"
       transform="scale(1.0540744,0.9486997)"><tspan
         sodipodi:role="line"
         id="tspan11978"
         x="286.1442"
         y="292.37167">L<tspan
   style="font-size:9.64694309px"
   id="tspan11980"
   dy="1.9687639">g2,x2</tspan></tspan></text>
    <path
       sodipodi:type="arc"
       style="opacity:1;color:#000000;fill:none;fill-opacity:1;fill-rule:nonzero;stroke:#000000;stroke-width:1.01300001;stroke-linecap:butt;stroke-linejoin:miter;marker:none;marker-start:none;marker-mid:none;marker-end:none;stroke-miterlimit:4;stroke-dasharray:none;stroke-dashoffset:0;stroke-opacity:1;visibility:visible;display:inline;overflow:visible;enable-background:accumulate"
       id="path11994"
       sodipodi:cx="205"
       sodipodi:cy="438.07648"
       sodipodi:rx="136.42857"
       sodipodi:ry="85.714287"
       d="M 341.42857 438.07648 A 136.42857 85.714287 0 1 1  68.571426,438.07648 A 136.42857 85.714287 0 1 1  341.42857 438.07648 z"
       transform="matrix(0,-0.653718,0.7263283,0,219.31934,542.94488)" />
    <text
       xml:space="preserve"
       style="font-size:13.78134727px;font-style:normal;font-weight:normal;fill:#000000;fill-opacity:1;stroke:none;stroke-width:1px;stroke-linecap:butt;stroke-linejoin:miter;stroke-opacity:1;display:inline;font-family:Bitstream Vera Sans"
       x="491.31686"
       y="511.68484"
       id="text11996"
       transform="scale(1.0540744,0.9486997)"><tspan
         sodipodi:role="line"
         id="tspan11998"
         x="491.31686"
         y="511.68484">L<tspan
   style="font-size:9.64694309px"
   id="tspan12000"
   dy="1.9687639">g3,x3</tspan></tspan></text>
    <path
       sodipodi:type="arc"
       style="opacity:1;color:#000000;fill:none;fill-opacity:1;fill-rule:nonzero;stroke:#000000;stroke-width:1.01300001;stroke-linecap:butt;stroke-linejoin:miter;marker:none;marker-start:none;marker-mid:none;marker-end:none;stroke-miterlimit:4;stroke-dasharray:none;stroke-dashoffset:0;stroke-opacity:1;visibility:visible;display:inline;overflow:visible;enable-background:accumulate"
       id="path12002"
       sodipodi:cx="205"
       sodipodi:cy="438.07648"
       sodipodi:rx="136.42857"
       sodipodi:ry="85.714287"
       d="M 341.42857 438.07648 A 136.42857 85.714287 0 1 1  68.571426,438.07648 A 136.42857 85.714287 0 1 1  341.42857 438.07648 z"
       transform="matrix(0.6290187,0.326859,-0.3631641,0.5661364,507.47001,6.1305957)" />
    <path
       sodipodi:type="arc"
       style="opacity:1;color:#000000;fill:none;fill-opacity:1;fill-rule:nonzero;stroke:#000000;stroke-width:1.01300001;stroke-linecap:butt;stroke-linejoin:miter;marker:none;marker-start:none;marker-mid:none;marker-end:none;stroke-miterlimit:4;stroke-dasharray:none;stroke-dashoffset:0;stroke-opacity:1;visibility:visible;display:inline;overflow:visible;enable-background:accumulate"
       id="path12004"
       sodipodi:cx="205"
       sodipodi:cy="438.07648"
       sodipodi:rx="136.42857"
       sodipodi:ry="85.714287"
       d="M 341.42857 438.07648 A 136.42857 85.714287 0 1 1  68.571426,438.07648 A 136.42857 85.714287 0 1 1  341.42857 438.07648 z"
       transform="matrix(0.6290187,-0.326859,0.3631641,0.5661364,317.94655,141.07666)" />
    <text
       xml:space="preserve"
       style="font-size:13.78134727px;font-style:normal;font-weight:normal;fill:#000000;fill-opacity:1;stroke:none;stroke-width:1px;stroke-linecap:butt;stroke-linejoin:miter;stroke-opacity:1;display:inline;font-family:Bitstream Vera Sans"
       x="379.88251"
       y="297.25201"
       id="text12006"
       transform="scale(1.0540744,0.9486997)"><tspan
         sodipodi:role="line"
         id="tspan12008"
         x="379.88251"
         y="297.25201">L<tspan
   style="font-size:9.64694309px"
   id="tspan12010"
   dy="1.9687639">g1,x1</tspan></tspan></text>
    <text
       xml:space="preserve"
       style="font-size:13.78134727px;font-style:normal;font-weight:normal;fill:#000000;fill-opacity:1;stroke:none;stroke-width:1px;stroke-linecap:butt;stroke-linejoin:miter;stroke-opacity:1;display:inline;font-family:Bitstream Vera Sans"
       x="498.10861"
       y="261.67874"
       id="text12012"
       transform="scale(1.0540744,0.9486997)"><tspan
         sodipodi:role="line"
         id="tspan12014"
         x="498.10861"
         y="261.67874">k=2</tspan></text>
    <text
       xml:space="preserve"
       style="font-size:13.78134727px;font-style:normal;font-weight:normal;fill:#000000;fill-opacity:1;stroke:none;stroke-width:1px;stroke-linecap:butt;stroke-linejoin:miter;stroke-opacity:1;display:inline;font-family:Bitstream Vera Sans"
       x="615.91217"
       y="299.67386"
       id="text12016"
       transform="scale(1.0540744,0.9486997)"><tspan
         sodipodi:role="line"
         id="tspan12018"
         x="615.91217"
         y="299.67386">L<tspan
   style="font-size:9.64694309px"
   id="tspan12020"
   dy="1.9687639">g2,x2</tspan></tspan></text>
    <path
       sodipodi:type="arc"
       style="opacity:1;color:#000000;fill:none;fill-opacity:1;fill-rule:nonzero;stroke:#000000;stroke-width:1.01300001;stroke-linecap:butt;stroke-linejoin:miter;marker:none;marker-start:none;marker-mid:none;marker-end:none;stroke-miterlimit:4;stroke-dasharray:none;stroke-dashoffset:0;stroke-opacity:1;visibility:visible;display:inline;overflow:visible;enable-background:accumulate"
       id="path12022"
       sodipodi:cx="205"
       sodipodi:cy="438.07648"
       sodipodi:rx="136.42857"
       sodipodi:ry="85.714287"
       d="M 341.42857 438.07648 A 136.42857 85.714287 0 1 1  68.571426,438.07648 A 136.42857 85.714287 0 1 1  341.42857 438.07648 z"
       transform="matrix(0,-0.653718,0.7263283,0,41.887725,831.51468)" />
    <text
       xml:space="preserve"
       style="font-size:13.78134727px;font-style:normal;font-weight:normal;fill:#000000;fill-opacity:1;stroke:none;stroke-width:1px;stroke-linecap:butt;stroke-linejoin:miter;stroke-opacity:1;display:inline;font-family:Bitstream Vera Sans"
       x="322.98755"
       y="815.85889"
       id="text12024"
       transform="scale(1.0540744,0.9486997)"><tspan
         sodipodi:role="line"
         id="tspan12026"
         x="322.98755"
         y="815.85889">L<tspan
   style="font-size:9.64694309px"
   id="tspan12028"
   dy="1.9687639">g3,x3</tspan></tspan></text>
    <path
       sodipodi:type="arc"
       style="opacity:1;color:#000000;fill:none;fill-opacity:1;fill-rule:nonzero;stroke:#000000;stroke-width:1.01300001;stroke-linecap:butt;stroke-linejoin:miter;marker:none;marker-start:none;marker-mid:none;marker-end:none;stroke-miterlimit:4;stroke-dasharray:none;stroke-dashoffset:0;stroke-opacity:1;visibility:visible;display:inline;overflow:visible;enable-background:accumulate"
       id="path12030"
       sodipodi:cx="205"
       sodipodi:cy="438.07648"
       sodipodi:rx="136.42857"
       sodipodi:ry="85.714287"
       d="M 341.42857 438.07648 A 136.42857 85.714287 0 1 1  68.571426,438.07648 A 136.42857 85.714287 0 1 1  341.42857 438.07648 z"
       transform="matrix(0.6290187,0.326859,-0.3631641,0.5661364,330.0384,294.70038)" />
    <path
       sodipodi:type="arc"
       style="opacity:1;color:#000000;fill:none;fill-opacity:1;fill-rule:nonzero;stroke:#000000;stroke-width:1.01300001;stroke-linecap:butt;stroke-linejoin:miter;marker:none;marker-start:none;marker-mid:none;marker-end:none;stroke-miterlimit:4;stroke-dasharray:none;stroke-dashoffset:0;stroke-opacity:1;visibility:visible;display:inline;overflow:visible;enable-background:accumulate"
       id="path12032"
       sodipodi:cx="205"
       sodipodi:cy="438.07648"
       sodipodi:rx="136.42857"
       sodipodi:ry="85.714287"
       d="M 341.42857 438.07648 A 136.42857 85.714287 0 1 1  68.571426,438.07648 A 136.42857 85.714287 0 1 1  341.42857 438.07648 z"
       transform="matrix(0.6290187,-0.326859,0.3631641,0.5661364,140.51493,429.64646)" />
    <text
       xml:space="preserve"
       style="font-size:13.78134727px;font-style:normal;font-weight:normal;fill:#000000;fill-opacity:1;stroke:none;stroke-width:1px;stroke-linecap:butt;stroke-linejoin:miter;stroke-opacity:1;display:inline;font-family:Bitstream Vera Sans"
       x="211.55319"
       y="601.42609"
       id="text12034"
       transform="scale(1.0540744,0.9486997)"><tspan
         sodipodi:role="line"
         id="tspan12036"
         x="211.55319"
         y="601.42609">L<tspan
   style="font-size:9.64694309px"
   id="tspan12038"
   dy="1.9687639">g1,x1</tspan></tspan></text>
    <text
       xml:space="preserve"
       style="font-size:13.78134727px;font-style:normal;font-weight:normal;fill:#000000;fill-opacity:1;stroke:none;stroke-width:1px;stroke-linecap:butt;stroke-linejoin:miter;stroke-opacity:1;display:inline;font-family:Bitstream Vera Sans"
       x="329.77927"
       y="565.85272"
       id="text12040"
       transform="scale(1.0540744,0.9486997)"><tspan
         sodipodi:role="line"
         id="tspan12042"
         x="329.77927"
         y="565.85272">k=3</tspan></text>
    <text
       xml:space="preserve"
       style="font-size:13.78134727px;font-style:normal;font-weight:normal;fill:#000000;fill-opacity:1;stroke:none;stroke-width:1px;stroke-linecap:butt;stroke-linejoin:miter;stroke-opacity:1;display:inline;font-family:Bitstream Vera Sans"
       x="447.58282"
       y="603.8479"
       id="text12044"
       transform="scale(1.0540744,0.9486997)"><tspan
         sodipodi:role="line"
         id="tspan12046"
         x="447.58282"
         y="603.8479">L<tspan
   style="font-size:9.64694309px"
   id="tspan12048"
   dy="1.9687639">g2,x2</tspan></tspan></text>
  </g>
</svg>
