<?xml version="1.0" encoding="UTF-8" standalone="no"?>
<!-- Created with Inkscape (http://www.inkscape.org/) -->

<svg
   xmlns:dc="http://purl.org/dc/elements/1.1/"
   xmlns:cc="http://creativecommons.org/ns#"
   xmlns:rdf="http://www.w3.org/1999/02/22-rdf-syntax-ns#"
   xmlns:svg="http://www.w3.org/2000/svg"
   xmlns="http://www.w3.org/2000/svg"
   xmlns:sodipodi="http://sodipodi.sourceforge.net/DTD/sodipodi-0.dtd"
   xmlns:inkscape="http://www.inkscape.org/namespaces/inkscape"
   width="744.09448819"
   height="1052.3622047"
   id="svg4694"
   version="1.1"
   inkscape:version="0.47pre4 r22446"
   sodipodi:docname="ordered1-1.svg">
  <defs
     id="defs4696">
    <marker
       inkscape:stockid="Arrow1Mend"
       orient="auto"
       refY="0.0"
       refX="0.0"
       id="Arrow1Mend"
       style="overflow:visible;">
      <path
         id="path3796"
         d="M 0.0,0.0 L 5.0,-5.0 L -12.5,0.0 L 5.0,5.0 L 0.0,0.0 z "
         style="fill-rule:evenodd;stroke:#000000;stroke-width:1.0pt;marker-start:none;"
         transform="scale(0.4) rotate(180) translate(10,0)" />
    </marker>
    <inkscape:perspective
       sodipodi:type="inkscape:persp3d"
       inkscape:vp_x="0 : 526.18109 : 1"
       inkscape:vp_y="0 : 1000 : 0"
       inkscape:vp_z="744.09448 : 526.18109 : 1"
       inkscape:persp3d-origin="372.04724 : 350.78739 : 1"
       id="perspective4702" />
    <inkscape:perspective
       id="perspective4745"
       inkscape:persp3d-origin="0.5 : 0.33333333 : 1"
       inkscape:vp_z="1 : 0.5 : 1"
       inkscape:vp_y="0 : 1000 : 0"
       inkscape:vp_x="0 : 0.5 : 1"
       sodipodi:type="inkscape:persp3d" />
    <inkscape:perspective
       id="perspective4784"
       inkscape:persp3d-origin="0.5 : 0.33333333 : 1"
       inkscape:vp_z="1 : 0.5 : 1"
       inkscape:vp_y="0 : 1000 : 0"
       inkscape:vp_x="0 : 0.5 : 1"
       sodipodi:type="inkscape:persp3d" />
    <inkscape:perspective
       id="perspective5513"
       inkscape:persp3d-origin="0.5 : 0.33333333 : 1"
       inkscape:vp_z="1 : 0.5 : 1"
       inkscape:vp_y="0 : 1000 : 0"
       inkscape:vp_x="0 : 0.5 : 1"
       sodipodi:type="inkscape:persp3d" />
    <inkscape:perspective
       id="perspective5513-7"
       inkscape:persp3d-origin="0.5 : 0.33333333 : 1"
       inkscape:vp_z="1 : 0.5 : 1"
       inkscape:vp_y="0 : 1000 : 0"
       inkscape:vp_x="0 : 0.5 : 1"
       sodipodi:type="inkscape:persp3d" />
    <inkscape:perspective
       id="perspective5513-3"
       inkscape:persp3d-origin="0.5 : 0.33333333 : 1"
       inkscape:vp_z="1 : 0.5 : 1"
       inkscape:vp_y="0 : 1000 : 0"
       inkscape:vp_x="0 : 0.5 : 1"
       sodipodi:type="inkscape:persp3d" />
    <inkscape:perspective
       id="perspective6713"
       inkscape:persp3d-origin="0.5 : 0.33333333 : 1"
       inkscape:vp_z="1 : 0.5 : 1"
       inkscape:vp_y="0 : 1000 : 0"
       inkscape:vp_x="0 : 0.5 : 1"
       sodipodi:type="inkscape:persp3d" />
    <inkscape:perspective
       id="perspective2870"
       inkscape:persp3d-origin="0.5 : 0.33333333 : 1"
       inkscape:vp_z="1 : 0.5 : 1"
       inkscape:vp_y="0 : 1000 : 0"
       inkscape:vp_x="0 : 0.5 : 1"
       sodipodi:type="inkscape:persp3d" />
    <inkscape:perspective
       id="perspective2870-8"
       inkscape:persp3d-origin="0.5 : 0.33333333 : 1"
       inkscape:vp_z="1 : 0.5 : 1"
       inkscape:vp_y="0 : 1000 : 0"
       inkscape:vp_x="0 : 0.5 : 1"
       sodipodi:type="inkscape:persp3d" />
    <inkscape:perspective
       id="perspective2916"
       inkscape:persp3d-origin="0.5 : 0.33333333 : 1"
       inkscape:vp_z="1 : 0.5 : 1"
       inkscape:vp_y="0 : 1000 : 0"
       inkscape:vp_x="0 : 0.5 : 1"
       sodipodi:type="inkscape:persp3d" />
    <inkscape:perspective
       id="perspective2916-8"
       inkscape:persp3d-origin="0.5 : 0.33333333 : 1"
       inkscape:vp_z="1 : 0.5 : 1"
       inkscape:vp_y="0 : 1000 : 0"
       inkscape:vp_x="0 : 0.5 : 1"
       sodipodi:type="inkscape:persp3d" />
    <inkscape:perspective
       id="perspective2916-9"
       inkscape:persp3d-origin="0.5 : 0.33333333 : 1"
       inkscape:vp_z="1 : 0.5 : 1"
       inkscape:vp_y="0 : 1000 : 0"
       inkscape:vp_x="0 : 0.5 : 1"
       sodipodi:type="inkscape:persp3d" />
    <inkscape:perspective
       id="perspective2916-7"
       inkscape:persp3d-origin="0.5 : 0.33333333 : 1"
       inkscape:vp_z="1 : 0.5 : 1"
       inkscape:vp_y="0 : 1000 : 0"
       inkscape:vp_x="0 : 0.5 : 1"
       sodipodi:type="inkscape:persp3d" />
    <inkscape:perspective
       id="perspective2916-6"
       inkscape:persp3d-origin="0.5 : 0.33333333 : 1"
       inkscape:vp_z="1 : 0.5 : 1"
       inkscape:vp_y="0 : 1000 : 0"
       inkscape:vp_x="0 : 0.5 : 1"
       sodipodi:type="inkscape:persp3d" />
    <inkscape:perspective
       id="perspective7215"
       inkscape:persp3d-origin="0.5 : 0.33333333 : 1"
       inkscape:vp_z="1 : 0.5 : 1"
       inkscape:vp_y="0 : 1000 : 0"
       inkscape:vp_x="0 : 0.5 : 1"
       sodipodi:type="inkscape:persp3d" />
    <inkscape:perspective
       id="perspective3672"
       inkscape:persp3d-origin="0.5 : 0.33333333 : 1"
       inkscape:vp_z="1 : 0.5 : 1"
       inkscape:vp_y="0 : 1000 : 0"
       inkscape:vp_x="0 : 0.5 : 1"
       sodipodi:type="inkscape:persp3d" />
    <inkscape:perspective
       id="perspective3672-0"
       inkscape:persp3d-origin="0.5 : 0.33333333 : 1"
       inkscape:vp_z="1 : 0.5 : 1"
       inkscape:vp_y="0 : 1000 : 0"
       inkscape:vp_x="0 : 0.5 : 1"
       sodipodi:type="inkscape:persp3d" />
    <inkscape:perspective
       id="perspective4090"
       inkscape:persp3d-origin="0.5 : 0.33333333 : 1"
       inkscape:vp_z="1 : 0.5 : 1"
       inkscape:vp_y="0 : 1000 : 0"
       inkscape:vp_x="0 : 0.5 : 1"
       sodipodi:type="inkscape:persp3d" />
    <marker
       inkscape:stockid="Arrow1Mend"
       orient="auto"
       refY="0"
       refX="0"
       id="Arrow1Mend-3"
       style="overflow:visible">
      <path
         id="path3796-7"
         d="M 0,0 5,-5 -12.5,0 5,5 0,0 z"
         style="fill-rule:evenodd;stroke:#000000;stroke-width:1pt;marker-start:none"
         transform="matrix(-0.4,0,0,-0.4,-4,0)" />
    </marker>
    <marker
       inkscape:stockid="Arrow1Mend"
       orient="auto"
       refY="0"
       refX="0"
       id="marker4096"
       style="overflow:visible">
      <path
         id="path4098"
         d="M 0,0 5,-5 -12.5,0 5,5 0,0 z"
         style="fill-rule:evenodd;stroke:#000000;stroke-width:1pt;marker-start:none"
         transform="matrix(-0.4,0,0,-0.4,-4,0)" />
    </marker>
    <inkscape:perspective
       id="perspective3973"
       inkscape:persp3d-origin="0.5 : 0.33333333 : 1"
       inkscape:vp_z="1 : 0.5 : 1"
       inkscape:vp_y="0 : 1000 : 0"
       inkscape:vp_x="0 : 0.5 : 1"
       sodipodi:type="inkscape:persp3d" />
  </defs>
  <sodipodi:namedview
     id="base"
     pagecolor="#ffffff"
     bordercolor="#666666"
     borderopacity="1.0"
     inkscape:pageopacity="0.0"
     inkscape:pageshadow="2"
     inkscape:zoom="3.959798"
     inkscape:cx="201.09018"
     inkscape:cy="709.76"
     inkscape:document-units="px"
     inkscape:current-layer="layer1"
     showgrid="true"
     inkscape:window-width="1920"
     inkscape:window-height="1151"
     inkscape:window-x="0"
     inkscape:window-y="0"
     inkscape:window-maximized="1"
     showguides="true"
     inkscape:guide-bbox="true"
     inkscape:snap-global="false">
    <inkscape:grid
       type="xygrid"
       id="grid4704" />
  </sodipodi:namedview>
  <metadata
     id="metadata4699">
    <rdf:RDF>
      <cc:Work
         rdf:about="">
        <dc:format>image/svg+xml</dc:format>
        <dc:type
           rdf:resource="http://purl.org/dc/dcmitype/StillImage" />
        <dc:title></dc:title>
      </cc:Work>
    </rdf:RDF>
  </metadata>
  <g
     inkscape:label="Layer 1"
     inkscape:groupmode="layer"
     id="layer1">
    <g
       id="g3659"
       transform="translate(6.8172531,-1.8654785)">
      <rect
         y="299.22766"
         x="98.182747"
         height="20"
         width="55"
         id="rect4730-4"
         style="fill:#ffffff;fill-opacity:1;stroke:#000000;stroke-width:1.17260385;stroke-miterlimit:4;stroke-opacity:1;stroke-dasharray:none" />
      <text
         id="text4710-5"
         y="314.87567"
         x="125.81588"
         style="font-size:16px;font-style:normal;font-variant:normal;font-weight:normal;font-stretch:normal;text-align:center;text-anchor:middle;fill:#000000;fill-opacity:1;stroke:none;font-family:FreeSans;-inkscape-font-specification:FreeSans"
         xml:space="preserve"><tspan
           y="314.87567"
           x="125.81588"
           id="tspan4712-9"
           sodipodi:role="line">y1-x1</tspan></text>
    </g>
    <g
       id="g3659-5"
       transform="translate(76.817253,-1.8654785)">
      <rect
         y="299.22766"
         x="98.182747"
         height="20"
         width="55"
         id="rect4730-4-6"
         style="fill:#ffffff;fill-opacity:1;stroke:#000000;stroke-width:1.17260385;stroke-miterlimit:4;stroke-opacity:1;stroke-dasharray:none" />
      <text
         id="text4710-5-5"
         y="314.87567"
         x="125.81588"
         style="font-size:16px;font-style:normal;font-variant:normal;font-weight:normal;font-stretch:normal;text-align:center;text-anchor:middle;fill:#000000;fill-opacity:1;stroke:none;font-family:FreeSans;-inkscape-font-specification:FreeSans"
         xml:space="preserve"><tspan
           y="314.87567"
           x="125.81588"
           id="tspan4712-9-9"
           sodipodi:role="line">y1-x2</tspan></text>
    </g>
    <g
       id="g3659-6"
       transform="translate(146.81725,-1.8654785)">
      <rect
         y="299.22766"
         x="98.182747"
         height="20"
         width="55"
         id="rect4730-4-5"
         style="fill:#ffffff;fill-opacity:1;stroke:#000000;stroke-width:1.17260385;stroke-miterlimit:4;stroke-opacity:1;stroke-dasharray:none" />
      <text
         id="text4710-5-0"
         y="314.87567"
         x="125.81588"
         style="font-size:16px;font-style:normal;font-variant:normal;font-weight:normal;font-stretch:normal;text-align:center;text-anchor:middle;fill:#000000;fill-opacity:1;stroke:none;font-family:FreeSans;-inkscape-font-specification:FreeSans"
         xml:space="preserve"><tspan
           y="314.87567"
           x="125.81588"
           id="tspan4712-9-8"
           sodipodi:role="line">y1-x3</tspan></text>
    </g>
    <path
       style="fill:none;stroke:#000000;stroke-width:1px;stroke-linecap:butt;stroke-linejoin:miter;stroke-opacity:1;marker-end:url(#Arrow1Mend)"
       d="m 160,307.36218 15,0"
       id="path3710"
       inkscape:connector-type="polyline"
       inkscape:connection-start="#g3659"
       inkscape:connection-end="#g3659-5" />
    <path
       style="fill:none;stroke:#000000;stroke-width:1px;stroke-linecap:butt;stroke-linejoin:miter;stroke-opacity:1;marker-end:url(#Arrow1Mend)"
       d="m 230,307.36218 15,0"
       id="path3712"
       inkscape:connector-type="polyline"
       inkscape:connection-start="#g3659-5"
       inkscape:connection-end="#g3659-6" />
    <g
       id="g3659-3"
       transform="translate(6.8172531,43.134521)">
      <rect
         y="299.22766"
         x="98.182747"
         height="20"
         width="55"
         id="rect4730-4-4"
         style="fill:#ffffff;fill-opacity:1;stroke:#000000;stroke-width:1.17260385;stroke-miterlimit:4;stroke-opacity:1;stroke-dasharray:none" />
      <text
         id="text4710-5-7"
         y="314.87567"
         x="125.81588"
         style="font-size:16px;font-style:normal;font-variant:normal;font-weight:normal;font-stretch:normal;text-align:center;text-anchor:middle;fill:#000000;fill-opacity:1;stroke:none;font-family:FreeSans;-inkscape-font-specification:FreeSans"
         xml:space="preserve"><tspan
           y="314.87567"
           x="125.81588"
           id="tspan4712-9-2"
           sodipodi:role="line">y2-x1</tspan></text>
    </g>
    <g
       id="g3659-5-1"
       transform="translate(76.817254,43.134521)">
      <rect
         y="299.22766"
         x="98.182747"
         height="20"
         width="55"
         id="rect4730-4-6-7"
         style="fill:#ffffff;fill-opacity:1;stroke:#000000;stroke-width:1.17260385;stroke-miterlimit:4;stroke-opacity:1;stroke-dasharray:none" />
      <text
         id="text4710-5-5-9"
         y="314.87567"
         x="125.81588"
         style="font-size:16px;font-style:normal;font-variant:normal;font-weight:normal;font-stretch:normal;text-align:center;text-anchor:middle;fill:#000000;fill-opacity:1;stroke:none;font-family:FreeSans;-inkscape-font-specification:FreeSans"
         xml:space="preserve"><tspan
           y="314.87567"
           x="125.81588"
           id="tspan4712-9-9-5"
           sodipodi:role="line">y2-x2</tspan></text>
    </g>
    <g
       id="g3659-6-6"
       transform="translate(146.81725,43.134521)">
      <rect
         y="299.22766"
         x="98.182747"
         height="20"
         width="55"
         id="rect4730-4-5-8"
         style="fill:#ffffff;fill-opacity:1;stroke:#000000;stroke-width:1.17260385;stroke-miterlimit:4;stroke-opacity:1;stroke-dasharray:none" />
      <text
         id="text4710-5-0-9"
         y="314.87567"
         x="125.81588"
         style="font-size:16px;font-style:normal;font-variant:normal;font-weight:normal;font-stretch:normal;text-align:center;text-anchor:middle;fill:#000000;fill-opacity:1;stroke:none;font-family:FreeSans;-inkscape-font-specification:FreeSans"
         xml:space="preserve"><tspan
           y="314.87567"
           x="125.81588"
           id="tspan4712-9-8-5"
           sodipodi:role="line">y2-x3</tspan></text>
    </g>
    <path
       style="fill:none;stroke:#000000;stroke-width:1px;stroke-linecap:butt;stroke-linejoin:miter;stroke-opacity:1;marker-end:url(#Arrow1Mend)"
       d="m 160,352.36218 15,0"
       id="path3710-5"
       inkscape:connector-type="polyline"
       inkscape:connection-start="#g3659-3"
       inkscape:connection-end="#g3659-5-1" />
    <path
       style="fill:none;stroke:#000000;stroke-width:1px;stroke-linecap:butt;stroke-linejoin:miter;stroke-opacity:1;marker-end:url(#Arrow1Mend)"
       d="m 230,352.36218 15,0"
       id="path3712-2"
       inkscape:connector-type="polyline"
       inkscape:connection-start="#g3659-5-1"
       inkscape:connection-end="#g3659-6-6" />
    <path
       style="fill:none;stroke:#0f00ff;stroke-width:1;stroke-linecap:butt;stroke-linejoin:miter;stroke-opacity:1;marker-end:url(#marker4096);stroke-miterlimit:4;stroke-dasharray:2, 1;stroke-dashoffset:0"
       d="m 132.5,317.36218 0,25"
       id="path4157"
       inkscape:connector-type="polyline"
       inkscape:connection-start="#g3659"
       inkscape:connection-end="#g3659-3" />
    <path
       style="fill:none;stroke:#0f00ff;stroke-width:1;stroke-linecap:butt;stroke-linejoin:miter;stroke-opacity:1;marker-end:url(#marker4096);stroke-miterlimit:4;stroke-dasharray:2, 1;stroke-dashoffset:0"
       d="m 148.05556,317.36218 38.88888,25"
       id="path4159"
       inkscape:connector-type="polyline"
       inkscape:connection-start="#g3659"
       inkscape:connection-end="#g3659-5-1" />
    <path
       style="fill:none;stroke:#0400ff;stroke-width:1;stroke-linecap:butt;stroke-linejoin:miter;stroke-opacity:1;stroke-miterlimit:4;stroke-dasharray:2, 1;stroke-dashoffset:0;marker-mid:none;marker-end:url(#marker4096)"
       d="m 160,316.20147 85,27.32143"
       id="path4161"
       inkscape:connector-type="polyline"
       inkscape:connection-start="#g3659"
       inkscape:connection-end="#g3659-6-6" />
    <path
       style="fill:none;stroke:#0f00ff;stroke-width:1;stroke-linecap:butt;stroke-linejoin:miter;stroke-opacity:1;marker-end:url(#marker4096);stroke-miterlimit:4;stroke-dasharray:2, 1;stroke-dashoffset:0"
       d="m 186.94444,317.36218 -38.88888,25"
       id="path4163"
       inkscape:connector-type="polyline"
       inkscape:connection-start="#g3659-5"
       inkscape:connection-end="#g3659-3" />
    <path
       style="fill:none;stroke:#0400ff;stroke-width:1;stroke-linecap:butt;stroke-linejoin:miter;stroke-opacity:1;stroke-miterlimit:4;stroke-dasharray:2, 1;stroke-dashoffset:0;marker-mid:none;marker-end:url(#marker4096)"
       d="m 202.5,317.36218 0,25"
       id="path4165"
       inkscape:connector-type="polyline"
       inkscape:connection-start="#g3659-5"
       inkscape:connection-end="#g3659-5-1" />
    <path
       style="fill:none;stroke:#0600ff;stroke-width:1;stroke-linecap:butt;stroke-linejoin:miter;stroke-opacity:1;stroke-miterlimit:4;stroke-dasharray:2, 1;stroke-dashoffset:0;marker-end:url(#marker4096)"
       d="m 218.05555,317.36218 38.88889,25"
       id="path4167"
       inkscape:connector-type="polyline"
       inkscape:connection-start="#g3659-5"
       inkscape:connection-end="#g3659-6-6" />
    <path
       style="fill:none;stroke:#0f00ff;stroke-width:1;stroke-linecap:butt;stroke-linejoin:miter;stroke-opacity:1;marker-end:url(#marker4096);stroke-miterlimit:4;stroke-dasharray:2, 1;stroke-dashoffset:0"
       d="M 245,316.20147 160,343.5229"
       id="path4169"
       inkscape:connector-type="polyline"
       inkscape:connection-start="#g3659-6"
       inkscape:connection-end="#g3659-3" />
    <path
       style="fill:none;stroke:#0400ff;stroke-width:1;stroke-linecap:butt;stroke-linejoin:miter;stroke-opacity:1;stroke-miterlimit:4;stroke-dasharray:2, 1;stroke-dashoffset:0;marker-mid:none;marker-end:url(#marker4096)"
       d="m 256.94444,317.36218 -38.88888,25"
       id="path4171"
       inkscape:connector-type="polyline"
       inkscape:connection-start="#g3659-6"
       inkscape:connection-end="#g3659-5-1" />
    <path
       style="fill:none;stroke:#0f00ff;stroke-width:1;stroke-linecap:butt;stroke-linejoin:miter;stroke-opacity:1;marker-end:url(#marker4096);stroke-miterlimit:4;stroke-dasharray:2, 1;stroke-dashoffset:0"
       d="m 272.5,317.36218 0,25"
       id="path4173"
       inkscape:connector-type="polyline"
       inkscape:connection-start="#g3659-6"
       inkscape:connection-end="#g3659-6-6" />
    <g
       id="g3659-8"
       transform="translate(76.817253,-41.865479)">
      <rect
         y="299.22766"
         x="98.182747"
         height="20"
         width="55"
         id="rect4730-4-9"
         style="fill:#ffffff;fill-opacity:1;stroke:#000000;stroke-width:1.17260385;stroke-miterlimit:4;stroke-opacity:1;stroke-dasharray:none" />
      <text
         id="text4710-5-06"
         y="314.87567"
         x="125.81588"
         style="font-size:16px;font-style:normal;font-variant:normal;font-weight:normal;font-stretch:normal;text-align:center;text-anchor:middle;fill:#000000;fill-opacity:1;stroke:none;font-family:FreeSans;-inkscape-font-specification:FreeSans"
         xml:space="preserve"><tspan
           y="314.87567"
           x="125.81588"
           id="tspan4712-9-87"
           sodipodi:role="line">y1</tspan></text>
    </g>
    <text
       xml:space="preserve"
       style="font-size:12px;font-style:normal;font-variant:normal;font-weight:normal;font-stretch:normal;fill:#000000;fill-opacity:1;stroke:none;font-family:FreeSans;-inkscape-font-specification:FreeSans"
       x="185"
       y="252.36218"
       id="text6736"><tspan
         sodipodi:role="line"
         id="tspan6738"
         x="185"
         y="252.36218"
         style="font-style:italic;-inkscape-font-specification:AlArabiya Italic">virtual</tspan></text>
    <g
       id="g3659-8-2"
       transform="translate(76.817253,83.134524)">
      <rect
         y="299.22766"
         x="98.182747"
         height="20"
         width="55"
         id="rect4730-4-9-6"
         style="fill:#ffffff;fill-opacity:1;stroke:#000000;stroke-width:1.17260385;stroke-miterlimit:4;stroke-opacity:1;stroke-dasharray:none" />
      <text
         id="text4710-5-06-0"
         y="314.87567"
         x="125.81588"
         style="font-size:16px;font-style:normal;font-variant:normal;font-weight:normal;font-stretch:normal;text-align:center;text-anchor:middle;fill:#000000;fill-opacity:1;stroke:none;font-family:FreeSans;-inkscape-font-specification:FreeSans"
         xml:space="preserve"><tspan
           y="314.87567"
           x="125.81588"
           id="tspan4712-9-87-6"
           sodipodi:role="line">y2</tspan></text>
    </g>
    <text
       xml:space="preserve"
       style="font-size:12px;font-style:normal;font-variant:normal;font-weight:normal;font-stretch:normal;fill:#000000;fill-opacity:1;stroke:none;font-family:FreeSans;-inkscape-font-specification:FreeSans"
       x="185"
       y="412.36218"
       id="text6736-6"><tspan
         sodipodi:role="line"
         id="tspan6738-4"
         x="185"
         y="412.36218"
         style="font-style:italic;-inkscape-font-specification:AlArabiya Italic">virtual</tspan></text>
    <path
       style="fill:none;stroke:#000000;stroke-width:1;stroke-linecap:butt;stroke-linejoin:miter;stroke-opacity:1;stroke-miterlimit:4;stroke-dasharray:1, 2;stroke-dashoffset:0;marker-end:url(#marker4096)"
       d="m 150,297.36218 35,-20"
       id="path4979"
       inkscape:connector-type="polyline"
       inkscape:connection-start="#g3659"
       inkscape:connection-end="#g3659-8" />
    <path
       style="fill:none;stroke:#000000;stroke-width:1;stroke-linecap:butt;stroke-linejoin:miter;stroke-opacity:1;stroke-miterlimit:4;stroke-dasharray:1, 2;stroke-dashoffset:0;marker-end:url(#marker4096)"
       d="m 202.5,297.36218 0,-20"
       id="path4981"
       inkscape:connector-type="polyline"
       inkscape:connection-start="#g3659-5"
       inkscape:connection-end="#g3659-8" />
    <path
       style="fill:none;stroke:#000000;stroke-width:1;stroke-linecap:butt;stroke-linejoin:miter;stroke-opacity:1;stroke-miterlimit:4;stroke-dasharray:1, 2;stroke-dashoffset:0;marker-end:url(#marker4096)"
       d="m 255,297.36218 -35,-20"
       id="path4983"
       inkscape:connector-type="polyline"
       inkscape:connection-start="#g3659-6"
       inkscape:connection-end="#g3659-8" />
    <path
       style="fill:none;stroke:#000000;stroke-width:1;stroke-linecap:butt;stroke-linejoin:miter;stroke-opacity:1;stroke-miterlimit:4;stroke-dasharray:1, 2;stroke-dashoffset:0;marker-end:url(#marker4096)"
       d="m 150,362.36218 35,20.00001"
       id="path4985"
       inkscape:connector-type="polyline"
       inkscape:connection-start="#g3659-3"
       inkscape:connection-end="#g3659-8-2" />
    <path
       style="fill:none;stroke:#000000;stroke-width:1;stroke-linecap:butt;stroke-linejoin:miter;stroke-opacity:1;stroke-miterlimit:4;stroke-dasharray:1, 2;stroke-dashoffset:0;marker-end:url(#marker4096)"
       d="m 202.5,362.36218 0,20.00001"
       id="path4987"
       inkscape:connector-type="polyline"
       inkscape:connection-start="#g3659-5-1"
       inkscape:connection-end="#g3659-8-2" />
    <path
       style="fill:none;stroke:#000000;stroke-width:1;stroke-linecap:butt;stroke-linejoin:miter;stroke-opacity:1;stroke-miterlimit:4;stroke-dasharray:1, 2;stroke-dashoffset:0;marker-end:url(#marker4096)"
       d="m 255,362.36218 -35,20.00001"
       id="path4989"
       inkscape:connector-type="polyline"
       inkscape:connection-start="#g3659-6-6"
       inkscape:connection-end="#g3659-8-2" />
  </g>
</svg>
