                            \\\///
                           / _  _ \
                         (| (.)(.) |)
.----------------------.OOOo--()--oOOO.----------------------.
|                                                            |
| See component templates in the ../../../components/ folder |
|                                                            |
'----------------------.oooO---------------------------------'
                        (   )   Oooo.
                         \ (    (   )
                          \_)    ) /
                                (_/
