<?xml version="1.0" encoding="UTF-8" standalone="no"?>
<svg width="351.367mm" height="250.119mm"
 xmlns="http://www.w3.org/2000/svg" xmlns:xlink="http://www.w3.org/1999/xlink"  version="1.2" baseProfile="tiny">
<title>Qt Svg Document</title>
<desc>Generated with Qt</desc>
<defs>
</defs>
<g fill="none" stroke="black" vector-effect="non-scaling-stroke" stroke-width="1" fill-rule="evenodd" stroke-linecap="square" stroke-linejoin="bevel" >

<g fill="#ffffff" fill-opacity="1" stroke="none" transform="matrix(1,0,0,1,-118,-48)"
font-family="Sans Serif" font-size="9" font-weight="400" font-style="normal" 
>
<path fill-rule="evenodd" d="M118,48 L1114,48 L1114,757 L118,757 L118,48"/>
</g>

<g fill="none" stroke="#ff0000" stroke-opacity="1" stroke-dasharray="4,2" stroke-dashoffset="0" vector-effect="non-scaling-stroke" stroke-width="1" stroke-linecap="square" stroke-linejoin="bevel" transform="matrix(1,0,0,1,-118,-48)"
font-family="Sans Serif" font-size="9" font-weight="400" font-style="normal" 
>
<polyline fill="none" points="181,72 181,757 " />
<polyline fill="none" points="814,72 814,430 " />
<polyline fill="none" points="396,72 396,757 " />
<polyline fill="none" points="1015,72 1015,737 " />
</g>

<g fill="#ffff00" fill-opacity="1" stroke="#ff0000" stroke-opacity="1" vector-effect="non-scaling-stroke" stroke-width="1" stroke-linecap="square" stroke-linejoin="bevel" transform="matrix(1,0,0,1,-118,-48)"
font-family="Sans Serif" font-size="9" font-weight="400" font-style="normal" 
>
<path fill-rule="evenodd" d="M327,48 L439,48 L439,68 L327,68 L327,48"/>
</g>

<g fill="#ffff00" fill-opacity="1" stroke="#000000" stroke-opacity="1" vector-effect="non-scaling-stroke" stroke-width="1" stroke-linecap="square" stroke-linejoin="bevel" transform="matrix(1,0,0,1,-118,-48)"
font-family="Sans Serif" font-size="9" font-weight="400" font-style="normal" 
>
</g>

<g fill="#ffff00" fill-opacity="1" stroke="#000000" stroke-opacity="1" vector-effect="non-scaling-stroke" stroke-width="1" stroke-linecap="square" stroke-linejoin="bevel" transform="matrix(1,0,0,1,-118,-48)"
font-family="Sans Serif" font-size="9" font-weight="400" font-style="normal" 
>
<text fill="#000000" fill-opacity="1" stroke="none" xml:space="preserve" x="332" y="61" font-family="Sans Serif" font-size="9" font-weight="400" font-style="normal" 
 > : le1:LoopExpression</text>
</g>

<g fill="none" stroke="#000000" stroke-opacity="1" stroke-width="1" stroke-linecap="butt" stroke-linejoin="bevel" transform="matrix(1,0,0,1,-118,-48)"
font-family="Sans Serif" font-size="9" font-weight="400" font-style="normal" 
>
<polyline fill="none" points="332,62 434,62 " />
</g>

<g fill="#ffff00" fill-opacity="1" stroke="#000000" stroke-opacity="1" vector-effect="non-scaling-stroke" stroke-width="1" stroke-linecap="square" stroke-linejoin="bevel" transform="matrix(1,0,0,1,-118,-48)"
font-family="Sans Serif" font-size="9" font-weight="400" font-style="normal" 
>
</g>

<g fill="#ffffff" fill-opacity="1" stroke="none" transform="matrix(1,0,0,1,-118,-48)"
font-family="Sans Serif" font-size="9" font-weight="400" font-style="normal" 
>
<path fill-rule="evenodd" d="M387,87 L404,87 L404,737 L387,737 L387,87"/>
</g>

<g fill="none" stroke="#ff0000" stroke-opacity="1" vector-effect="non-scaling-stroke" stroke-width="1" stroke-linecap="square" stroke-linejoin="bevel" transform="matrix(1,0,0,1,-118,-48)"
font-family="Sans Serif" font-size="9" font-weight="400" font-style="normal" 
>
<path fill-rule="evenodd" d="M387,87 L404,87 L404,737 L387,737 L387,87"/>
<polyline fill="none" points="181,91 387,91 " />
</g>

<g fill="#ff0000" fill-opacity="1" stroke="#ff0000" stroke-opacity="1" vector-effect="non-scaling-stroke" stroke-width="1" stroke-linecap="square" stroke-linejoin="bevel" transform="matrix(1,0,0,1,-118,-48)"
font-family="Sans Serif" font-size="9" font-weight="400" font-style="normal" 
>
<path fill-rule="evenodd" d="M386,91 L382,88 L382,94 L386,91"/>
<polyline fill="none" points="181,734 185,731 " />
<polyline fill="none" points="181,734 185,737 " />
</g>

<g fill="#ff0000" fill-opacity="1" stroke="#ff0000" stroke-opacity="1" stroke-dasharray="1,2" stroke-dashoffset="0" vector-effect="non-scaling-stroke" stroke-width="1" stroke-linecap="square" stroke-linejoin="bevel" transform="matrix(1,0,0,1,-118,-48)"
font-family="Sans Serif" font-size="9" font-weight="400" font-style="normal" 
>
<polyline fill="none" points="181,734 387,734 " />
</g>

<g fill="#ffffff" fill-opacity="1" stroke="none" transform="matrix(1,0,0,1,-118,-48)"
font-family="Sans Serif" font-size="9" font-weight="400" font-style="normal" 
>
<path fill-rule="evenodd" d="M1006,697 L1023,697 L1023,717 L1006,717 L1006,697"/>
</g>

<g fill="none" stroke="#ff0000" stroke-opacity="1" vector-effect="non-scaling-stroke" stroke-width="1" stroke-linecap="square" stroke-linejoin="bevel" transform="matrix(1,0,0,1,-118,-48)"
font-family="Sans Serif" font-size="9" font-weight="400" font-style="normal" 
>
<path fill-rule="evenodd" d="M1006,697 L1023,697 L1023,717 L1006,717 L1006,697"/>
<polyline fill="none" points="404,701 1006,701 " />
</g>

<g fill="#ff0000" fill-opacity="1" stroke="#ff0000" stroke-opacity="1" vector-effect="non-scaling-stroke" stroke-width="1" stroke-linecap="square" stroke-linejoin="bevel" transform="matrix(1,0,0,1,-118,-48)"
font-family="Sans Serif" font-size="9" font-weight="400" font-style="normal" 
>
<path fill-rule="evenodd" d="M1005,701 L1001,698 L1001,704 L1005,701"/>
<polyline fill="none" points="404,714 408,711 " />
<polyline fill="none" points="404,714 408,717 " />
</g>

<g fill="#ff0000" fill-opacity="1" stroke="#ff0000" stroke-opacity="1" stroke-dasharray="1,2" stroke-dashoffset="0" vector-effect="non-scaling-stroke" stroke-width="1" stroke-linecap="square" stroke-linejoin="bevel" transform="matrix(1,0,0,1,-118,-48)"
font-family="Sans Serif" font-size="9" font-weight="400" font-style="normal" 
>
<polyline fill="none" points="404,714 1006,714 " />
</g>

<g fill="#ffffff" fill-opacity="1" stroke="none" transform="matrix(1,0,0,1,-118,-48)"
font-family="Sans Serif" font-size="9" font-weight="400" font-style="normal" 
>
<path fill-rule="evenodd" d="M394,115 L411,115 L411,150 L394,150 L394,115"/>
</g>

<g fill="none" stroke="#ff0000" stroke-opacity="1" vector-effect="non-scaling-stroke" stroke-width="1" stroke-linecap="square" stroke-linejoin="bevel" transform="matrix(1,0,0,1,-118,-48)"
font-family="Sans Serif" font-size="9" font-weight="400" font-style="normal" 
>
<path fill-rule="evenodd" d="M394,115 L411,115 L411,150 L394,150 L394,115"/>
<polyline fill="none" points="411,118 443,118 " />
<polyline fill="none" points="443,118 443,147 " />
<polyline fill="none" points="411,147 415,144 " />
<polyline fill="none" points="411,147 415,150 " />
<polyline fill="none" points="411,147 443,147 " />
</g>

<g fill="#ffffff" fill-opacity="1" stroke="none" transform="matrix(1,0,0,1,-118,-48)"
font-family="Sans Serif" font-size="9" font-weight="400" font-style="normal" 
>
<path fill-rule="evenodd" d="M630,164 L647,164 L647,190 L630,190 L630,164"/>
</g>

<g fill="none" stroke="#ff0000" stroke-opacity="1" vector-effect="non-scaling-stroke" stroke-width="1" stroke-linecap="square" stroke-linejoin="bevel" transform="matrix(1,0,0,1,-118,-48)"
font-family="Sans Serif" font-size="9" font-weight="400" font-style="normal" 
>
<path fill-rule="evenodd" d="M630,164 L647,164 L647,190 L630,190 L630,164"/>
<polyline fill="none" points="404,168 630,168 " />
</g>

<g fill="#ff0000" fill-opacity="1" stroke="#ff0000" stroke-opacity="1" vector-effect="non-scaling-stroke" stroke-width="1" stroke-linecap="square" stroke-linejoin="bevel" transform="matrix(1,0,0,1,-118,-48)"
font-family="Sans Serif" font-size="9" font-weight="400" font-style="normal" 
>
<path fill-rule="evenodd" d="M629,168 L625,165 L625,171 L629,168"/>
<polyline fill="none" points="404,187 408,184 " />
<polyline fill="none" points="404,187 408,190 " />
</g>

<g fill="#ff0000" fill-opacity="1" stroke="#ff0000" stroke-opacity="1" stroke-dasharray="1,2" stroke-dashoffset="0" vector-effect="non-scaling-stroke" stroke-width="1" stroke-linecap="square" stroke-linejoin="bevel" transform="matrix(1,0,0,1,-118,-48)"
font-family="Sans Serif" font-size="9" font-weight="400" font-style="normal" 
>
<polyline fill="none" points="404,187 630,187 " />
</g>

<g fill="#ffffff" fill-opacity="1" stroke="none" transform="matrix(1,0,0,1,-118,-48)"
font-family="Sans Serif" font-size="9" font-weight="400" font-style="normal" 
>
<path fill-rule="evenodd" d="M1006,653 L1023,653 L1023,673 L1006,673 L1006,653"/>
</g>

<g fill="none" stroke="#ff0000" stroke-opacity="1" vector-effect="non-scaling-stroke" stroke-width="1" stroke-linecap="square" stroke-linejoin="bevel" transform="matrix(1,0,0,1,-118,-48)"
font-family="Sans Serif" font-size="9" font-weight="400" font-style="normal" 
>
<path fill-rule="evenodd" d="M1006,653 L1023,653 L1023,673 L1006,673 L1006,653"/>
<polyline fill="none" points="404,657 1006,657 " />
</g>

<g fill="#ff0000" fill-opacity="1" stroke="#ff0000" stroke-opacity="1" vector-effect="non-scaling-stroke" stroke-width="1" stroke-linecap="square" stroke-linejoin="bevel" transform="matrix(1,0,0,1,-118,-48)"
font-family="Sans Serif" font-size="9" font-weight="400" font-style="normal" 
>
<path fill-rule="evenodd" d="M1005,657 L1001,654 L1001,660 L1005,657"/>
<polyline fill="none" points="404,670 408,667 " />
<polyline fill="none" points="404,670 408,673 " />
</g>

<g fill="#ff0000" fill-opacity="1" stroke="#ff0000" stroke-opacity="1" stroke-dasharray="1,2" stroke-dashoffset="0" vector-effect="non-scaling-stroke" stroke-width="1" stroke-linecap="square" stroke-linejoin="bevel" transform="matrix(1,0,0,1,-118,-48)"
font-family="Sans Serif" font-size="9" font-weight="400" font-style="normal" 
>
<polyline fill="none" points="404,670 1006,670 " />
</g>

<g fill="none" stroke="#ff0000" stroke-opacity="1" stroke-dasharray="4,2" stroke-dashoffset="0" vector-effect="non-scaling-stroke" stroke-width="1" stroke-linecap="square" stroke-linejoin="bevel" transform="matrix(1,0,0,1,-118,-48)"
font-family="Sans Serif" font-size="9" font-weight="400" font-style="normal" 
>
<polyline fill="none" points="639,72 639,207 " />
</g>

<g fill="#ffffff" fill-opacity="1" stroke="none" transform="matrix(1,0,0,1,-118,-48)"
font-family="Sans Serif" font-size="9" font-weight="400" font-style="normal" 
>
<path fill-rule="evenodd" d="M1006,608 L1023,608 L1023,628 L1006,628 L1006,608"/>
</g>

<g fill="none" stroke="#ff0000" stroke-opacity="1" vector-effect="non-scaling-stroke" stroke-width="1" stroke-linecap="square" stroke-linejoin="bevel" transform="matrix(1,0,0,1,-118,-48)"
font-family="Sans Serif" font-size="9" font-weight="400" font-style="normal" 
>
<path fill-rule="evenodd" d="M1006,608 L1023,608 L1023,628 L1006,628 L1006,608"/>
<polyline fill="none" points="404,612 1006,612 " />
</g>

<g fill="#ff0000" fill-opacity="1" stroke="#ff0000" stroke-opacity="1" vector-effect="non-scaling-stroke" stroke-width="1" stroke-linecap="square" stroke-linejoin="bevel" transform="matrix(1,0,0,1,-118,-48)"
font-family="Sans Serif" font-size="9" font-weight="400" font-style="normal" 
>
<path fill-rule="evenodd" d="M1005,612 L1001,609 L1001,615 L1005,612"/>
<polyline fill="none" points="404,625 408,622 " />
<polyline fill="none" points="404,625 408,628 " />
</g>

<g fill="#ff0000" fill-opacity="1" stroke="#ff0000" stroke-opacity="1" stroke-dasharray="1,2" stroke-dashoffset="0" vector-effect="non-scaling-stroke" stroke-width="1" stroke-linecap="square" stroke-linejoin="bevel" transform="matrix(1,0,0,1,-118,-48)"
font-family="Sans Serif" font-size="9" font-weight="400" font-style="normal" 
>
<polyline fill="none" points="404,625 1006,625 " />
</g>

<g fill="#ffffff" fill-opacity="1" stroke="none" transform="matrix(1,0,0,1,-118,-48)"
font-family="Sans Serif" font-size="9" font-weight="400" font-style="normal" 
>
<path fill-rule="evenodd" d="M1006,561 L1023,561 L1023,581 L1006,581 L1006,561"/>
</g>

<g fill="none" stroke="#ff0000" stroke-opacity="1" vector-effect="non-scaling-stroke" stroke-width="1" stroke-linecap="square" stroke-linejoin="bevel" transform="matrix(1,0,0,1,-118,-48)"
font-family="Sans Serif" font-size="9" font-weight="400" font-style="normal" 
>
<path fill-rule="evenodd" d="M1006,561 L1023,561 L1023,581 L1006,581 L1006,561"/>
<polyline fill="none" points="404,565 1006,565 " />
</g>

<g fill="#ff0000" fill-opacity="1" stroke="#ff0000" stroke-opacity="1" vector-effect="non-scaling-stroke" stroke-width="1" stroke-linecap="square" stroke-linejoin="bevel" transform="matrix(1,0,0,1,-118,-48)"
font-family="Sans Serif" font-size="9" font-weight="400" font-style="normal" 
>
<path fill-rule="evenodd" d="M1005,565 L1001,562 L1001,568 L1005,565"/>
<polyline fill="none" points="404,578 408,575 " />
<polyline fill="none" points="404,578 408,581 " />
</g>

<g fill="#ff0000" fill-opacity="1" stroke="#ff0000" stroke-opacity="1" stroke-dasharray="1,2" stroke-dashoffset="0" vector-effect="non-scaling-stroke" stroke-width="1" stroke-linecap="square" stroke-linejoin="bevel" transform="matrix(1,0,0,1,-118,-48)"
font-family="Sans Serif" font-size="9" font-weight="400" font-style="normal" 
>
<polyline fill="none" points="404,578 1006,578 " />
</g>

<g fill="#ffffff" fill-opacity="1" stroke="none" transform="matrix(1,0,0,1,-118,-48)"
font-family="Sans Serif" font-size="9" font-weight="400" font-style="normal" 
>
<path fill-rule="evenodd" d="M805,378 L822,378 L822,410 L805,410 L805,378"/>
</g>

<g fill="none" stroke="#ff0000" stroke-opacity="1" vector-effect="non-scaling-stroke" stroke-width="1" stroke-linecap="square" stroke-linejoin="bevel" transform="matrix(1,0,0,1,-118,-48)"
font-family="Sans Serif" font-size="9" font-weight="400" font-style="normal" 
>
<path fill-rule="evenodd" d="M805,378 L822,378 L822,410 L805,410 L805,378"/>
<polyline fill="none" points="404,382 805,382 " />
</g>

<g fill="#ff0000" fill-opacity="1" stroke="#ff0000" stroke-opacity="1" vector-effect="non-scaling-stroke" stroke-width="1" stroke-linecap="square" stroke-linejoin="bevel" transform="matrix(1,0,0,1,-118,-48)"
font-family="Sans Serif" font-size="9" font-weight="400" font-style="normal" 
>
<path fill-rule="evenodd" d="M804,382 L800,379 L800,385 L804,382"/>
<polyline fill="none" points="404,407 408,404 " />
<polyline fill="none" points="404,407 408,410 " />
</g>

<g fill="#ff0000" fill-opacity="1" stroke="#ff0000" stroke-opacity="1" stroke-dasharray="1,2" stroke-dashoffset="0" vector-effect="non-scaling-stroke" stroke-width="1" stroke-linecap="square" stroke-linejoin="bevel" transform="matrix(1,0,0,1,-118,-48)"
font-family="Sans Serif" font-size="9" font-weight="400" font-style="normal" 
>
<polyline fill="none" points="404,407 805,407 " />
</g>

<g fill="#ffffff" fill-opacity="1" stroke="none" transform="matrix(1,0,0,1,-118,-48)"
font-family="Sans Serif" font-size="9" font-weight="400" font-style="normal" 
>
<path fill-rule="evenodd" d="M394,225 L411,225 L411,257 L394,257 L394,225"/>
</g>

<g fill="none" stroke="#ff0000" stroke-opacity="1" vector-effect="non-scaling-stroke" stroke-width="1" stroke-linecap="square" stroke-linejoin="bevel" transform="matrix(1,0,0,1,-118,-48)"
font-family="Sans Serif" font-size="9" font-weight="400" font-style="normal" 
>
<path fill-rule="evenodd" d="M394,225 L411,225 L411,257 L394,257 L394,225"/>
<polyline fill="none" points="411,228 443,228 " />
<polyline fill="none" points="443,228 443,254 " />
<polyline fill="none" points="411,254 415,251 " />
<polyline fill="none" points="411,254 415,257 " />
<polyline fill="none" points="411,254 443,254 " />
</g>

<g fill="#ffffff" fill-opacity="1" stroke="none" transform="matrix(1,0,0,1,-118,-48)"
font-family="Sans Serif" font-size="9" font-weight="400" font-style="normal" 
>
<path fill-rule="evenodd" d="M1006,474 L1023,474 L1023,494 L1006,494 L1006,474"/>
</g>

<g fill="none" stroke="#ff0000" stroke-opacity="1" vector-effect="non-scaling-stroke" stroke-width="1" stroke-linecap="square" stroke-linejoin="bevel" transform="matrix(1,0,0,1,-118,-48)"
font-family="Sans Serif" font-size="9" font-weight="400" font-style="normal" 
>
<path fill-rule="evenodd" d="M1006,474 L1023,474 L1023,494 L1006,494 L1006,474"/>
<polyline fill="none" points="404,478 1006,478 " />
</g>

<g fill="#ff0000" fill-opacity="1" stroke="#ff0000" stroke-opacity="1" vector-effect="non-scaling-stroke" stroke-width="1" stroke-linecap="square" stroke-linejoin="bevel" transform="matrix(1,0,0,1,-118,-48)"
font-family="Sans Serif" font-size="9" font-weight="400" font-style="normal" 
>
<path fill-rule="evenodd" d="M1005,478 L1001,475 L1001,481 L1005,478"/>
<polyline fill="none" points="404,491 408,488 " />
<polyline fill="none" points="404,491 408,494 " />
</g>

<g fill="#ff0000" fill-opacity="1" stroke="#ff0000" stroke-opacity="1" stroke-dasharray="1,2" stroke-dashoffset="0" vector-effect="non-scaling-stroke" stroke-width="1" stroke-linecap="square" stroke-linejoin="bevel" transform="matrix(1,0,0,1,-118,-48)"
font-family="Sans Serif" font-size="9" font-weight="400" font-style="normal" 
>
<polyline fill="none" points="404,491 1006,491 " />
</g>

<g fill="#ffffff" fill-opacity="1" stroke="none" transform="matrix(1,0,0,1,-118,-48)"
font-family="Sans Serif" font-size="9" font-weight="400" font-style="normal" 
>
<path fill-rule="evenodd" d="M394,289 L411,289 L411,321 L394,321 L394,289"/>
</g>

<g fill="none" stroke="#ff0000" stroke-opacity="1" vector-effect="non-scaling-stroke" stroke-width="1" stroke-linecap="square" stroke-linejoin="bevel" transform="matrix(1,0,0,1,-118,-48)"
font-family="Sans Serif" font-size="9" font-weight="400" font-style="normal" 
>
<path fill-rule="evenodd" d="M394,289 L411,289 L411,321 L394,321 L394,289"/>
<polyline fill="none" points="411,292 443,292 " />
<polyline fill="none" points="443,292 443,318 " />
<polyline fill="none" points="411,318 415,315 " />
<polyline fill="none" points="411,318 415,321 " />
<polyline fill="none" points="411,318 443,318 " />
</g>

<g fill="none" stroke="#323232" stroke-opacity="1" vector-effect="non-scaling-stroke" stroke-width="1" stroke-linecap="square" stroke-linejoin="bevel" transform="matrix(1,0,0,1,-118,-48)"
font-family="Sans Serif" font-size="9" font-weight="400" font-style="normal" 
>
<text fill="#323232" fill-opacity="1" stroke="none" xml:space="preserve" x="454" y="553" font-family="Sans Serif" font-size="9" font-weight="400" font-style="normal" 
 >: setBody()</text>
</g>

<g fill="#ffff00" fill-opacity="1" stroke="#ff0000" stroke-opacity="1" vector-effect="non-scaling-stroke" stroke-width="1" stroke-linecap="square" stroke-linejoin="bevel" transform="matrix(1,0,0,1,-118,-48)"
font-family="Sans Serif" font-size="9" font-weight="400" font-style="normal" 
>
<path fill-rule="evenodd" d="M762,48 L847,48 L847,68 L762,68 L762,48"/>
</g>

<g fill="#ffff00" fill-opacity="1" stroke="#000000" stroke-opacity="1" vector-effect="non-scaling-stroke" stroke-width="1" stroke-linecap="square" stroke-linejoin="bevel" transform="matrix(1,0,0,1,-118,-48)"
font-family="Sans Serif" font-size="9" font-weight="400" font-style="normal" 
>
</g>

<g fill="#ffff00" fill-opacity="1" stroke="#000000" stroke-opacity="1" vector-effect="non-scaling-stroke" stroke-width="1" stroke-linecap="square" stroke-linejoin="bevel" transform="matrix(1,0,0,1,-118,-48)"
font-family="Sans Serif" font-size="9" font-weight="400" font-style="normal" 
>
<text fill="#000000" fill-opacity="1" stroke="none" xml:space="preserve" x="766.5" y="61" font-family="Sans Serif" font-size="9" font-weight="400" font-style="normal" 
 > : lv1:LoopValue</text>
</g>

<g fill="none" stroke="#000000" stroke-opacity="1" stroke-width="1" stroke-linecap="butt" stroke-linejoin="bevel" transform="matrix(1,0,0,1,-118,-48)"
font-family="Sans Serif" font-size="9" font-weight="400" font-style="normal" 
>
<polyline fill="none" points="766.5,62 841.5,62 " />
</g>

<g fill="#ffff00" fill-opacity="1" stroke="#000000" stroke-opacity="1" vector-effect="non-scaling-stroke" stroke-width="1" stroke-linecap="square" stroke-linejoin="bevel" transform="matrix(1,0,0,1,-118,-48)"
font-family="Sans Serif" font-size="9" font-weight="400" font-style="normal" 
>
</g>

<g fill="none" stroke="#323232" stroke-opacity="1" vector-effect="non-scaling-stroke" stroke-width="1" stroke-linecap="square" stroke-linejoin="bevel" transform="matrix(1,0,0,1,-118,-48)"
font-family="Sans Serif" font-size="9" font-weight="400" font-style="normal" 
>
<text fill="#323232" fill-opacity="1" stroke="none" xml:space="preserve" x="403" y="281" font-family="Sans Serif" font-size="9" font-weight="400" font-style="normal" 
 >: getParametersFile()</text>
</g>

<g fill="#ffff00" fill-opacity="1" stroke="#ff0000" stroke-opacity="1" vector-effect="non-scaling-stroke" stroke-width="1" stroke-linecap="square" stroke-linejoin="bevel" transform="matrix(1,0,0,1,-118,-48)"
font-family="Sans Serif" font-size="9" font-weight="400" font-style="normal" 
>
<path fill-rule="evenodd" d="M576,48 L679,48 L679,68 L576,68 L576,48"/>
</g>

<g fill="#ffff00" fill-opacity="1" stroke="#000000" stroke-opacity="1" vector-effect="non-scaling-stroke" stroke-width="1" stroke-linecap="square" stroke-linejoin="bevel" transform="matrix(1,0,0,1,-118,-48)"
font-family="Sans Serif" font-size="9" font-weight="400" font-style="normal" 
>
</g>

<g fill="#ffff00" fill-opacity="1" stroke="#000000" stroke-opacity="1" vector-effect="non-scaling-stroke" stroke-width="1" stroke-linecap="square" stroke-linejoin="bevel" transform="matrix(1,0,0,1,-118,-48)"
font-family="Sans Serif" font-size="9" font-weight="400" font-style="normal" 
>
<text fill="#000000" fill-opacity="1" stroke="none" xml:space="preserve" x="581" y="61" font-family="Sans Serif" font-size="9" font-weight="400" font-style="normal" 
 > : c2:CallExpression</text>
</g>

<g fill="none" stroke="#000000" stroke-opacity="1" stroke-width="1" stroke-linecap="butt" stroke-linejoin="bevel" transform="matrix(1,0,0,1,-118,-48)"
font-family="Sans Serif" font-size="9" font-weight="400" font-style="normal" 
>
<polyline fill="none" points="581,62 674,62 " />
</g>

<g fill="#ffff00" fill-opacity="1" stroke="#000000" stroke-opacity="1" vector-effect="non-scaling-stroke" stroke-width="1" stroke-linecap="square" stroke-linejoin="bevel" transform="matrix(1,0,0,1,-118,-48)"
font-family="Sans Serif" font-size="9" font-weight="400" font-style="normal" 
>
</g>

<g fill="#ffff00" fill-opacity="1" stroke="#ff0000" stroke-opacity="1" vector-effect="non-scaling-stroke" stroke-width="1" stroke-linecap="square" stroke-linejoin="bevel" transform="matrix(1,0,0,1,-118,-48)"
font-family="Sans Serif" font-size="9" font-weight="400" font-style="normal" 
>
<path fill-rule="evenodd" d="M916,48 L1074,48 L1074,68 L916,68 L916,48"/>
</g>

<g fill="#ffff00" fill-opacity="1" stroke="#000000" stroke-opacity="1" vector-effect="non-scaling-stroke" stroke-width="1" stroke-linecap="square" stroke-linejoin="bevel" transform="matrix(1,0,0,1,-118,-48)"
font-family="Sans Serif" font-size="9" font-weight="400" font-style="normal" 
>
</g>

<g fill="#ffff00" fill-opacity="1" stroke="#000000" stroke-opacity="1" vector-effect="non-scaling-stroke" stroke-width="1" stroke-linecap="square" stroke-linejoin="bevel" transform="matrix(1,0,0,1,-118,-48)"
font-family="Sans Serif" font-size="9" font-weight="400" font-style="normal" 
>
<text fill="#000000" fill-opacity="1" stroke="none" xml:space="preserve" x="920.5" y="61" font-family="Sans Serif" font-size="9" font-weight="400" font-style="normal" 
 > : lci1:LoopComponentInstance</text>
</g>

<g fill="none" stroke="#000000" stroke-opacity="1" stroke-width="1" stroke-linecap="butt" stroke-linejoin="bevel" transform="matrix(1,0,0,1,-118,-48)"
font-family="Sans Serif" font-size="9" font-weight="400" font-style="normal" 
>
<polyline fill="none" points="920.5,62 1068.5,62 " />
</g>

<g fill="#ffff00" fill-opacity="1" stroke="#000000" stroke-opacity="1" vector-effect="non-scaling-stroke" stroke-width="1" stroke-linecap="square" stroke-linejoin="bevel" transform="matrix(1,0,0,1,-118,-48)"
font-family="Sans Serif" font-size="9" font-weight="400" font-style="normal" 
>
</g>

<g fill="#ffff00" fill-opacity="1" stroke="#ff0000" stroke-opacity="1" vector-effect="non-scaling-stroke" stroke-width="1" stroke-linecap="square" stroke-linejoin="bevel" transform="matrix(1,0,0,1,-118,-48)"
font-family="Sans Serif" font-size="9" font-weight="400" font-style="normal" 
>
<path fill-rule="evenodd" d="M118,48 L221,48 L221,68 L118,68 L118,48"/>
</g>

<g fill="#ffff00" fill-opacity="1" stroke="#000000" stroke-opacity="1" vector-effect="non-scaling-stroke" stroke-width="1" stroke-linecap="square" stroke-linejoin="bevel" transform="matrix(1,0,0,1,-118,-48)"
font-family="Sans Serif" font-size="9" font-weight="400" font-style="normal" 
>
</g>

<g fill="#ffff00" fill-opacity="1" stroke="#000000" stroke-opacity="1" vector-effect="non-scaling-stroke" stroke-width="1" stroke-linecap="square" stroke-linejoin="bevel" transform="matrix(1,0,0,1,-118,-48)"
font-family="Sans Serif" font-size="9" font-weight="400" font-style="normal" 
>
<text fill="#000000" fill-opacity="1" stroke="none" xml:space="preserve" x="123" y="61" font-family="Sans Serif" font-size="9" font-weight="400" font-style="normal" 
 > : c1:CallExpression</text>
</g>

<g fill="none" stroke="#000000" stroke-opacity="1" stroke-width="1" stroke-linecap="butt" stroke-linejoin="bevel" transform="matrix(1,0,0,1,-118,-48)"
font-family="Sans Serif" font-size="9" font-weight="400" font-style="normal" 
>
<polyline fill="none" points="123,62 216,62 " />
</g>

<g fill="#ffff00" fill-opacity="1" stroke="#000000" stroke-opacity="1" vector-effect="non-scaling-stroke" stroke-width="1" stroke-linecap="square" stroke-linejoin="bevel" transform="matrix(1,0,0,1,-118,-48)"
font-family="Sans Serif" font-size="9" font-weight="400" font-style="normal" 
>
</g>

<g fill="none" stroke="#323232" stroke-opacity="1" vector-effect="non-scaling-stroke" stroke-width="1" stroke-linecap="square" stroke-linejoin="bevel" transform="matrix(1,0,0,1,-118,-48)"
font-family="Sans Serif" font-size="9" font-weight="400" font-style="normal" 
>
<text fill="#323232" fill-opacity="1" stroke="none" xml:space="preserve" x="451" y="466" font-family="Sans Serif" font-size="9" font-weight="400" font-style="normal" 
 >: createLoopComponentInstance()</text>
</g>

<g fill="none" stroke="#323232" stroke-opacity="1" vector-effect="non-scaling-stroke" stroke-width="1" stroke-linecap="square" stroke-linejoin="bevel" transform="matrix(1,0,0,1,-118,-48)"
font-family="Sans Serif" font-size="9" font-weight="400" font-style="normal" 
>
<text fill="#323232" fill-opacity="1" stroke="none" xml:space="preserve" x="456" y="689" font-family="Sans Serif" font-size="9" font-weight="400" font-style="normal" 
 >: addComponentInstanceToNetwork()</text>
</g>

<g fill="none" stroke="#323232" stroke-opacity="1" vector-effect="non-scaling-stroke" stroke-width="1" stroke-linecap="square" stroke-linejoin="bevel" transform="matrix(1,0,0,1,-118,-48)"
font-family="Sans Serif" font-size="9" font-weight="400" font-style="normal" 
>
<text fill="#323232" fill-opacity="1" stroke="none" xml:space="preserve" x="403" y="217" font-family="Sans Serif" font-size="9" font-weight="400" font-style="normal" 
 >: getFeedbackParameters()</text>
</g>

<g fill="none" stroke="#323232" stroke-opacity="1" vector-effect="non-scaling-stroke" stroke-width="1" stroke-linecap="square" stroke-linejoin="bevel" transform="matrix(1,0,0,1,-118,-48)"
font-family="Sans Serif" font-size="9" font-weight="400" font-style="normal" 
>
<text fill="#323232" fill-opacity="1" stroke="none" xml:space="preserve" x="403" y="107" font-family="Sans Serif" font-size="9" font-weight="400" font-style="normal" 
 >: getBodyCallParameters()</text>
</g>

<g fill="none" stroke="#323232" stroke-opacity="1" vector-effect="non-scaling-stroke" stroke-width="1" stroke-linecap="square" stroke-linejoin="bevel" transform="matrix(1,0,0,1,-118,-48)"
font-family="Sans Serif" font-size="9" font-weight="400" font-style="normal" 
>
<text fill="#323232" fill-opacity="1" stroke="none" xml:space="preserve" x="241" y="79" font-family="Sans Serif" font-size="9" font-weight="400" font-style="normal" 
 >: evaluate()</text>
</g>

<g fill="none" stroke="#323232" stroke-opacity="1" vector-effect="non-scaling-stroke" stroke-width="1" stroke-linecap="square" stroke-linejoin="bevel" transform="matrix(1,0,0,1,-118,-48)"
font-family="Sans Serif" font-size="9" font-weight="400" font-style="normal" 
>
<text fill="#323232" fill-opacity="1" stroke="none" xml:space="preserve" x="481" y="156" font-family="Sans Serif" font-size="9" font-weight="400" font-style="normal" 
 >: evaluate()</text>
</g>

<g fill="none" stroke="#323232" stroke-opacity="1" vector-effect="non-scaling-stroke" stroke-width="1" stroke-linecap="square" stroke-linejoin="bevel" transform="matrix(1,0,0,1,-118,-48)"
font-family="Sans Serif" font-size="9" font-weight="400" font-style="normal" 
>
<text fill="#323232" fill-opacity="1" stroke="none" xml:space="preserve" x="418" y="370" font-family="Sans Serif" font-size="9" font-weight="400" font-style="normal" 
 >: createLoopComponent()</text>
</g>

<g fill="none" stroke="#323232" stroke-opacity="1" vector-effect="non-scaling-stroke" stroke-width="1" stroke-linecap="square" stroke-linejoin="bevel" transform="matrix(1,0,0,1,-118,-48)"
font-family="Sans Serif" font-size="9" font-weight="400" font-style="normal" 
>
<text fill="#323232" fill-opacity="1" stroke="none" xml:space="preserve" x="456" y="645" font-family="Sans Serif" font-size="9" font-weight="400" font-style="normal" 
 >: setFeedback()</text>
</g>

<g fill="none" stroke="#323232" stroke-opacity="1" vector-effect="non-scaling-stroke" stroke-width="1" stroke-linecap="square" stroke-linejoin="bevel" transform="matrix(1,0,0,1,-118,-48)"
font-family="Sans Serif" font-size="9" font-weight="400" font-style="normal" 
>
<text fill="#323232" fill-opacity="1" stroke="none" xml:space="preserve" x="456" y="600" font-family="Sans Serif" font-size="9" font-weight="400" font-style="normal" 
 >: setParameters()</text>
</g>
</g>
</svg>
